{
  "tilejson": "2.0.0",
  "id": "openmaptiles",
  "name": "ahihi",
  "format": "pbf",
  "maxzoom": 14,
  "minzoom": 0,
  "version": "3.11",
  "generator": "MapTiler Data",
  "maskLevel": "8",
  "planettime": "1604880000000",
  "attribution": "<a href=\"https://www.maptiler.com/copyright/\" target=\"_blank\">&copy; MapTiler</a> <a href=\"https://www.openstreetmap.org/copyright\" target=\"_blank\">&copy; OpenStreetMap contributors</a>",
  "description": "A tileset showcasing all layers in OpenMapTiles. https://openmaptiles.org",
  "vector_layers": [
    {
      "id": "water",
      "fields": {
        "class": "String",
        "brunnel": "String",
        "intermittent": "Number"
      },
      "maxzoom": 14,
      "minzoom": 0,
      "description": ""
    },
    {
      "id": "waterway",
      "fields": {
        "name": "String",
        "class": "String",
        "brunnel": "String",
        "name:am": "String",
        "name:ar": "String",
        "name:az": "String",
        "name:be": "String",
        "name:bg": "String",
        "name:br": "String",
        "name:bs": "String",
        "name:ca": "String",
        "name:co": "String",
        "name:cs": "String",
        "name:cy": "String",
        "name:da": "String",
        "name:de": "String",
        "name:el": "String",
        "name:en": "String",
        "name:eo": "String",
        "name:es": "String",
        "name:et": "String",
        "name:eu": "String",
        "name:fi": "String",
        "name:fr": "String",
        "name:fy": "String",
        "name:ga": "String",
        "name:gd": "String",
        "name:he": "String",
        "name:hr": "String",
        "name:hu": "String",
        "name:hy": "String",
        "name:id": "String",
        "name:is": "String",
        "name:it": "String",
        "name:ja": "String",
        "name:ka": "String",
        "name:kk": "String",
        "name:kn": "String",
        "name:ko": "String",
        "name:ku": "String",
        "name:la": "String",
        "name:lb": "String",
        "name:lt": "String",
        "name:lv": "String",
        "name:mk": "String",
        "name:ml": "String",
        "name:mt": "String",
        "name:nl": "String",
        "name:no": "String",
        "name:oc": "String",
        "name:pl": "String",
        "name:pt": "String",
        "name:rm": "String",
        "name:ro": "String",
        "name:ru": "String",
        "name:sk": "String",
        "name:sl": "String",
        "name:sq": "String",
        "name:sr": "String",
        "name:sv": "String",
        "name:th": "String",
        "name:tr": "String",
        "name:uk": "String",
        "name:zh": "String",
        "name_de": "String",
        "name_en": "String",
        "name_int": "String",
        "name:ja_rm": "String",
        "name:ko_rm": "String",
        "name:latin": "String",
        "intermittent": "Number",
        "name:ja_kana": "String",
        "name:sr-Latn": "String",
        "name:nonlatin": "String"
      },
      "maxzoom": 14,
      "minzoom": 0,
      "description": ""
    },
    {
      "id": "landcover",
      "fields": {
        "class": "String",
        "subclass": "String"
      },
      "maxzoom": 14,
      "minzoom": 0,
      "description": ""
    },
    {
      "id": "landuse",
      "fields": {
        "class": "String"
      },
      "maxzoom": 14,
      "minzoom": 0,
      "description": ""
    },
    {
      "id": "mountain_peak",
      "fields": {
        "ele": "Number",
        "name": "String",
        "rank": "Number",
        "class": "String",
        "ele_ft": "Number",
        "name:am": "String",
        "name:ar": "String",
        "name:az": "String",
        "name:be": "String",
        "name:bg": "String",
        "name:br": "String",
        "name:bs": "String",
        "name:ca": "String",
        "name:co": "String",
        "name:cs": "String",
        "name:cy": "String",
        "name:da": "String",
        "name:de": "String",
        "name:el": "String",
        "name:en": "String",
        "name:eo": "String",
        "name:es": "String",
        "name:et": "String",
        "name:eu": "String",
        "name:fi": "String",
        "name:fr": "String",
        "name:fy": "String",
        "name:ga": "String",
        "name:gd": "String",
        "name:he": "String",
        "name:hr": "String",
        "name:hu": "String",
        "name:hy": "String",
        "name:id": "String",
        "name:is": "String",
        "name:it": "String",
        "name:ja": "String",
        "name:ka": "String",
        "name:kk": "String",
        "name:kn": "String",
        "name:ko": "String",
        "name:ku": "String",
        "name:la": "String",
        "name:lb": "String",
        "name:lt": "String",
        "name:lv": "String",
        "name:mk": "String",
        "name:ml": "String",
        "name:mt": "String",
        "name:nl": "String",
        "name:no": "String",
        "name:oc": "String",
        "name:pl": "String",
        "name:pt": "String",
        "name:rm": "String",
        "name:ro": "String",
        "name:ru": "String",
        "name:sk": "String",
        "name:sl": "String",
        "name:sq": "String",
        "name:sr": "String",
        "name:sv": "String",
        "name:th": "String",
        "name:tr": "String",
        "name:uk": "String",
        "name:zh": "String",
        "name_de": "String",
        "name_en": "String",
        "name_int": "String",
        "name:ja_rm": "String",
        "name:ko_rm": "String",
        "name:latin": "String",
        "name:ja_kana": "String",
        "name:sr-Latn": "String",
        "name:nonlatin": "String"
      },
      "maxzoom": 14,
      "minzoom": 0,
      "description": ""
    },
    {
      "id": "park",
      "fields": {
        "name": "String",
        "rank": "Number",
        "class": "String",
        "name:am": "String",
        "name:ar": "String",
        "name:az": "String",
        "name:be": "String",
        "name:bg": "String",
        "name:br": "String",
        "name:bs": "String",
        "name:ca": "String",
        "name:co": "String",
        "name:cs": "String",
        "name:cy": "String",
        "name:da": "String",
        "name:de": "String",
        "name:el": "String",
        "name:en": "String",
        "name:eo": "String",
        "name:es": "String",
        "name:et": "String",
        "name:eu": "String",
        "name:fi": "String",
        "name:fr": "String",
        "name:fy": "String",
        "name:ga": "String",
        "name:gd": "String",
        "name:he": "String",
        "name:hr": "String",
        "name:hu": "String",
        "name:hy": "String",
        "name:id": "String",
        "name:is": "String",
        "name:it": "String",
        "name:ja": "String",
        "name:ka": "String",
        "name:kk": "String",
        "name:kn": "String",
        "name:ko": "String",
        "name:ku": "String",
        "name:la": "String",
        "name:lb": "String",
        "name:lt": "String",
        "name:lv": "String",
        "name:mk": "String",
        "name:ml": "String",
        "name:mt": "String",
        "name:nl": "String",
        "name:no": "String",
        "name:oc": "String",
        "name:pl": "String",
        "name:pt": "String",
        "name:rm": "String",
        "name:ro": "String",
        "name:ru": "String",
        "name:sk": "String",
        "name:sl": "String",
        "name:sq": "String",
        "name:sr": "String",
        "name:sv": "String",
        "name:th": "String",
        "name:tr": "String",
        "name:uk": "String",
        "name:zh": "String",
        "name_de": "String",
        "name_en": "String",
        "name_int": "String",
        "name:ja_rm": "String",
        "name:ko_rm": "String",
        "name:latin": "String",
        "name:ja_kana": "String",
        "name:sr-Latn": "String",
        "name:nonlatin": "String"
      },
      "maxzoom": 14,
      "minzoom": 0,
      "description": ""
    },
    {
      "id": "boundary",
      "fields": {
        "disputed": "Number",
        "maritime": "Number",
        "claimed_by": "String",
        "admin_level": "Number",
        "disputed_name": "String"
      },
      "maxzoom": 14,
      "minzoom": 0,
      "description": ""
    },
    {
      "id": "aeroway",
      "fields": {
        "ref": "String",
        "class": "String"
      },
      "maxzoom": 14,
      "minzoom": 0,
      "description": ""
    },
    {
      "id": "transportation",
      "fields": {
        "foot": "String",
        "ramp": "Number",
        "class": "String",
        "horse": "String",
        "layer": "Number",
        "level": "Number",
        "indoor": "Number",
        "oneway": "Number",
        "bicycle": "String",
        "brunnel": "String",
        "service": "String",
        "surface": "String",
        "subclass": "String",
        "mtb_scale": "String"
      },
      "maxzoom": 14,
      "minzoom": 0,
      "description": ""
    },
    {
      "id": "building",
      "fields": {
        "colour": "String",
        "hide_3d": "Boolean",
        "render_height": "Number",
        "render_min_height": "Number"
      },
      "maxzoom": 14,
      "minzoom": 0,
      "description": ""
    },
    {
      "id": "water_name",
      "fields": {
        "name": "String",
        "class": "String",
        "name:am": "String",
        "name:ar": "String",
        "name:az": "String",
        "name:be": "String",
        "name:bg": "String",
        "name:br": "String",
        "name:bs": "String",
        "name:ca": "String",
        "name:co": "String",
        "name:cs": "String",
        "name:cy": "String",
        "name:da": "String",
        "name:de": "String",
        "name:el": "String",
        "name:en": "String",
        "name:eo": "String",
        "name:es": "String",
        "name:et": "String",
        "name:eu": "String",
        "name:fi": "String",
        "name:fr": "String",
        "name:fy": "String",
        "name:ga": "String",
        "name:gd": "String",
        "name:he": "String",
        "name:hr": "String",
        "name:hu": "String",
        "name:hy": "String",
        "name:id": "String",
        "name:is": "String",
        "name:it": "String",
        "name:ja": "String",
        "name:ka": "String",
        "name:kk": "String",
        "name:kn": "String",
        "name:ko": "String",
        "name:ku": "String",
        "name:la": "String",
        "name:lb": "String",
        "name:lt": "String",
        "name:lv": "String",
        "name:mk": "String",
        "name:ml": "String",
        "name:mt": "String",
        "name:nl": "String",
        "name:no": "String",
        "name:oc": "String",
        "name:pl": "String",
        "name:pt": "String",
        "name:rm": "String",
        "name:ro": "String",
        "name:ru": "String",
        "name:sk": "String",
        "name:sl": "String",
        "name:sq": "String",
        "name:sr": "String",
        "name:sv": "String",
        "name:th": "String",
        "name:tr": "String",
        "name:uk": "String",
        "name:zh": "String",
        "name_de": "String",
        "name_en": "String",
        "name_int": "String",
        "name:ja_rm": "String",
        "name:ko_rm": "String",
        "name:latin": "String",
        "intermittent": "Number",
        "name:ja_kana": "String",
        "name:sr-Latn": "String",
        "name:nonlatin": "String"
      },
      "maxzoom": 14,
      "minzoom": 0,
      "description": ""
    },
    {
      "id": "transportation_name",
      "fields": {
        "ref": "String",
        "name": "String",
        "class": "String",
        "layer": "Number",
        "level": "Number",
        "indoor": "Number",
        "name:am": "String",
        "name:ar": "String",
        "name:az": "String",
        "name:be": "String",
        "name:bg": "String",
        "name:br": "String",
        "name:bs": "String",
        "name:ca": "String",
        "name:co": "String",
        "name:cs": "String",
        "name:cy": "String",
        "name:da": "String",
        "name:de": "String",
        "name:el": "String",
        "name:en": "String",
        "name:eo": "String",
        "name:es": "String",
        "name:et": "String",
        "name:eu": "String",
        "name:fi": "String",
        "name:fr": "String",
        "name:fy": "String",
        "name:ga": "String",
        "name:gd": "String",
        "name:he": "String",
        "name:hr": "String",
        "name:hu": "String",
        "name:hy": "String",
        "name:id": "String",
        "name:is": "String",
        "name:it": "String",
        "name:ja": "String",
        "name:ka": "String",
        "name:kk": "String",
        "name:kn": "String",
        "name:ko": "String",
        "name:ku": "String",
        "name:la": "String",
        "name:lb": "String",
        "name:lt": "String",
        "name:lv": "String",
        "name:mk": "String",
        "name:ml": "String",
        "name:mt": "String",
        "name:nl": "String",
        "name:no": "String",
        "name:oc": "String",
        "name:pl": "String",
        "name:pt": "String",
        "name:rm": "String",
        "name:ro": "String",
        "name:ru": "String",
        "name:sk": "String",
        "name:sl": "String",
        "name:sq": "String",
        "name:sr": "String",
        "name:sv": "String",
        "name:th": "String",
        "name:tr": "String",
        "name:uk": "String",
        "name:zh": "String",
        "name_de": "String",
        "name_en": "String",
        "network": "String",
        "name_int": "String",
        "subclass": "String",
        "name:ja_rm": "String",
        "name:ko_rm": "String",
        "name:latin": "String",
        "ref_length": "Number",
        "name:ja_kana": "String",
        "name:sr-Latn": "String",
        "name:nonlatin": "String"
      },
      "maxzoom": 14,
      "minzoom": 0,
      "description": ""
    },
    {
      "id": "place",
      "fields": {
        "name": "String",
        "rank": "Number",
        "class": "String",
        "iso_a2": "String",
        "capital": "Number",
        "name:am": "String",
        "name:ar": "String",
        "name:az": "String",
        "name:be": "String",
        "name:bg": "String",
        "name:br": "String",
        "name:bs": "String",
        "name:ca": "String",
        "name:co": "String",
        "name:cs": "String",
        "name:cy": "String",
        "name:da": "String",
        "name:de": "String",
        "name:el": "String",
        "name:en": "String",
        "name:eo": "String",
        "name:es": "String",
        "name:et": "String",
        "name:eu": "String",
        "name:fi": "String",
        "name:fr": "String",
        "name:fy": "String",
        "name:ga": "String",
        "name:gd": "String",
        "name:he": "String",
        "name:hr": "String",
        "name:hu": "String",
        "name:hy": "String",
        "name:id": "String",
        "name:is": "String",
        "name:it": "String",
        "name:ja": "String",
        "name:ka": "String",
        "name:kk": "String",
        "name:kn": "String",
        "name:ko": "String",
        "name:ku": "String",
        "name:la": "String",
        "name:lb": "String",
        "name:lt": "String",
        "name:lv": "String",
        "name:mk": "String",
        "name:ml": "String",
        "name:mt": "String",
        "name:nl": "String",
        "name:no": "String",
        "name:oc": "String",
        "name:pl": "String",
        "name:pt": "String",
        "name:rm": "String",
        "name:ro": "String",
        "name:ru": "String",
        "name:sk": "String",
        "name:sl": "String",
        "name:sq": "String",
        "name:sr": "String",
        "name:sv": "String",
        "name:th": "String",
        "name:tr": "String",
        "name:uk": "String",
        "name:zh": "String",
        "name_de": "String",
        "name_en": "String",
        "name_int": "String",
        "name:ja_rm": "String",
        "name:ko_rm": "String",
        "name:latin": "String",
        "name:ja_kana": "String",
        "name:sr-Latn": "String",
        "name:nonlatin": "String"
      },
      "maxzoom": 14,
      "minzoom": 0,
      "description": ""
    },
    {
      "id": "housenumber",
      "fields": {
        "housenumber": "String"
      },
      "maxzoom": 14,
      "minzoom": 0,
      "description": ""
    },
    {
      "id": "poi",
      "fields": {
        "name": "String",
        "rank": "Number",
        "class": "String",
        "layer": "Number",
        "level": "Number",
        "indoor": "Number",
        "name:am": "String",
        "name:ar": "String",
        "name:az": "String",
        "name:be": "String",
        "name:bg": "String",
        "name:br": "String",
        "name:bs": "String",
        "name:ca": "String",
        "name:co": "String",
        "name:cs": "String",
        "name:cy": "String",
        "name:da": "String",
        "name:de": "String",
        "name:el": "String",
        "name:en": "String",
        "name:eo": "String",
        "name:es": "String",
        "name:et": "String",
        "name:eu": "String",
        "name:fi": "String",
        "name:fr": "String",
        "name:fy": "String",
        "name:ga": "String",
        "name:gd": "String",
        "name:he": "String",
        "name:hr": "String",
        "name:hu": "String",
        "name:hy": "String",
        "name:id": "String",
        "name:is": "String",
        "name:it": "String",
        "name:ja": "String",
        "name:ka": "String",
        "name:kk": "String",
        "name:kn": "String",
        "name:ko": "String",
        "name:ku": "String",
        "name:la": "String",
        "name:lb": "String",
        "name:lt": "String",
        "name:lv": "String",
        "name:mk": "String",
        "name:ml": "String",
        "name:mt": "String",
        "name:nl": "String",
        "name:no": "String",
        "name:oc": "String",
        "name:pl": "String",
        "name:pt": "String",
        "name:rm": "String",
        "name:ro": "String",
        "name:ru": "String",
        "name:sk": "String",
        "name:sl": "String",
        "name:sq": "String",
        "name:sr": "String",
        "name:sv": "String",
        "name:th": "String",
        "name:tr": "String",
        "name:uk": "String",
        "name:zh": "String",
        "name_de": "String",
        "name_en": "String",
        "agg_stop": "Number",
        "name_int": "String",
        "subclass": "String",
        "name:ja_rm": "String",
        "name:ko_rm": "String",
        "name:latin": "String",
        "name:ja_kana": "String",
        "name:sr-Latn": "String",
        "name:nonlatin": "String"
      },
      "maxzoom": 14,
      "minzoom": 0,
      "description": ""
    },
    {
      "id": "aerodrome_label",
      "fields": {
        "ele": "Number",
        "iata": "String",
        "icao": "String",
        "name": "String",
        "class": "String",
        "ele_ft": "Number",
        "name:am": "String",
        "name:ar": "String",
        "name:az": "String",
        "name:be": "String",
        "name:bg": "String",
        "name:br": "String",
        "name:bs": "String",
        "name:ca": "String",
        "name:co": "String",
        "name:cs": "String",
        "name:cy": "String",
        "name:da": "String",
        "name:de": "String",
        "name:el": "String",
        "name:en": "String",
        "name:eo": "String",
        "name:es": "String",
        "name:et": "String",
        "name:eu": "String",
        "name:fi": "String",
        "name:fr": "String",
        "name:fy": "String",
        "name:ga": "String",
        "name:gd": "String",
        "name:he": "String",
        "name:hr": "String",
        "name:hu": "String",
        "name:hy": "String",
        "name:id": "String",
        "name:is": "String",
        "name:it": "String",
        "name:ja": "String",
        "name:ka": "String",
        "name:kk": "String",
        "name:kn": "String",
        "name:ko": "String",
        "name:ku": "String",
        "name:la": "String",
        "name:lb": "String",
        "name:lt": "String",
        "name:lv": "String",
        "name:mk": "String",
        "name:ml": "String",
        "name:mt": "String",
        "name:nl": "String",
        "name:no": "String",
        "name:oc": "String",
        "name:pl": "String",
        "name:pt": "String",
        "name:rm": "String",
        "name:ro": "String",
        "name:ru": "String",
        "name:sk": "String",
        "name:sl": "String",
        "name:sq": "String",
        "name:sr": "String",
        "name:sv": "String",
        "name:th": "String",
        "name:tr": "String",
        "name:uk": "String",
        "name:zh": "String",
        "name_de": "String",
        "name_en": "String",
        "name_int": "String",
        "name:ja_rm": "String",
        "name:ko_rm": "String",
        "name:latin": "String",
        "name:ja_kana": "String",
        "name:sr-Latn": "String",
        "name:nonlatin": "String"
      },
      "maxzoom": 14,
      "minzoom": 0,
      "description": ""
    },
    {
      "id": "globallandcover",
      "fields": {
        "class": "Crop, grass, scrub, tree, forest, snow."
      },
      "maxzoom": 9,
      "minzoom": 0,
      "description": "Landcover with generalized polygons up to zoom 9 with classes - Crop, grass, scrub, tree, forest, snow."
    }
  ],
  "crs": "EPSG:3857",
  "crs_wkt": "PROJCS[\"WGS 84 / Pseudo-Mercator\",GEOGCS[\"WGS 84\",DATUM[\"WGS_1984\",SPHEROID[\"WGS 84\",6378137,298.257223563,AUTHORITY[\"EPSG\",\"7030\"]],AUTHORITY[\"EPSG\",\"6326\"]],PRIMEM[\"Greenwich\",0,AUTHORITY[\"EPSG\",\"8901\"]],UNIT[\"degree\",0.0174532925199433,AUTHORITY[\"EPSG\",\"9122\"]],AUTHORITY[\"EPSG\",\"4326\"]],PROJECTION[\"Mercator_1SP\"],PARAMETER[\"central_meridian\",0],PARAMETER[\"scale_factor\",1],PARAMETER[\"false_easting\",0],PARAMETER[\"false_northing\",0],UNIT[\"metre\",1,AUTHORITY[\"EPSG\",\"9001\"]],AXIS[\"X\",EAST],AXIS[\"Y\",NORTH],EXTENSION[\"PROJ4\",\"+proj=merc +a=6378137 +b=6378137 +lat_ts=0.0 +lon_0=0.0 +x_0=0.0 +y_0=0 +k=1.0 +units=m +nadgrids=@null +wktext +no_defs\"],AUTHORITY[\"EPSG\",\"3857\"]]",
  "extent": [
    -20037508.342789244,
    -20037471.205137067,
    20037508.342789244,
    20037471.20513706
  ],
  "tile_grid": "mercator",
  "tiles": [
    "http://localhost:9000/tiles/{z}/{x}/{y}.pbf"
  ]
}